%YAML 1.1
%TAG !u! tag:unity3d.com,2011:
--- !u!21 &2100000
Material:
  serializedVersion: 6
  m_ObjectHideFlags: 0
  m_CorrespondingSourceObject: {fileID: 0}
  m_PrefabInstance: {fileID: 0}
  m_PrefabAsset: {fileID: 0}
  m_Name: EarthGlow
  m_Shader: {fileID: 4800000, guid: 8877f47f7d19346349bf4b73d12cf9c8, type: 3}
  m_ShaderKeywords: 
  m_LightmapFlags: 1
  m_EnableInstancingVariants: 0
  m_DoubleSidedGI: 0
  m_CustomRenderQueue: -1
  stringTagMap: {}
  disabledShaderPasses: []
  m_SavedProperties:
    serializedVersion: 3
    m_TexEnvs:
    - _BumpMap:
        m_Texture: {fileID: 2800000, guid: 35e0015cf8a1a4e3ab82565bc0c3e968, type: 3}
        m_Scale: {x: 1, y: 1}
        m_Offset: {x: 0, y: 0}
    - _CloudMap:
        m_Texture: {fileID: 2800000, guid: dc33070a78b6e4c4eabb5999d974d977, type: 3}
        m_Scale: {x: 1, y: 1}
        m_Offset: {x: 0, y: 0}
    - _DetailAlbedoMap:
        m_Texture: {fileID: 0}
        m_Scale: {x: 1, y: 1}
        m_Offset: {x: 0, y: 0}
    - _DetailMask:
        m_Texture: {fileID: 0}
        m_Scale: {x: 1, y: 1}
        m_Offset: {x: 0, y: 0}
    - _DetailNormalMap:
        m_Texture: {fileID: 0}
        m_Scale: {x: 1, y: 1}
        m_Offset: {x: 0, y: 0}
    - _EmissionMap:
        m_Texture: {fileID: 0}
        m_Scale: {x: 1, y: 1}
        m_Offset: {x: 0, y: 0}
    - _Illum:
        m_Texture: {fileID: 2800000, guid: 35e0015cf8a1a4e3ab82565bc0c3e968, type: 3}
        m_Scale: {x: 1, y: 1}
        m_Offset: {x: 0, y: 0}
    - _LightMap:
        m_Texture: {fileID: 0}
        m_Scale: {x: 1, y: 1}
        m_Offset: {x: 0, y: 0}
    - _MainTex:
        m_Texture: {fileID: 2800000, guid: 862d7ee44fff21946937253d7154d8e7, type: 3}
        m_Scale: {x: 1, y: 1}
        m_Offset: {x: 0, y: 0}
    - _MatCap:
        m_Texture: {fileID: 2800000, guid: 862d7ee44fff21946937253d7154d8e7, type: 3}
        m_Scale: {x: 1, y: 1}
        m_Offset: {x: 0, y: 0}
    - _MetallicGlossMap:
        m_Texture: {fileID: 0}
        m_Scale: {x: 1, y: 1}
        m_Offset: {x: 0, y: 0}
    - _NormalMap:
        m_Texture: {fileID: 2800000, guid: 35e0015cf8a1a4e3ab82565bc0c3e968, type: 3}
        m_Scale: {x: 1, y: 1}
        m_Offset: {x: 0, y: 0}
    - _OcclusionMap:
        m_Texture: {fileID: 0}
        m_Scale: {x: 1, y: 1}
        m_Offset: {x: 0, y: 0}
    - _ParallaxMap:
        m_Texture: {fileID: 0}
        m_Scale: {x: 1, y: 1}
        m_Offset: {x: 0, y: 0}
    m_Floats:
    - _AtmosphereAlpha: 1
    - _AtmosphereFallOff: 1.35
    - _AtmosphereScatter: 3.5
    - _BumpAmount: 0.646
    - _BumpEffect: 0.62
    - _BumpScale: 1
    - _CloudAlpha: 1
    - _CloudElevation: 0.003
    - _CloudShadowStrength: 0.2
    - _CloudSpeed: -0.04
    - _Cutoff: 0.5
    - _DetailNormalMapScale: 1
    - _DstBlend: 0
    - _Glossiness: 0.5
    - _GlowDistanceFallOff: 0.034
    - _GlowFallOff: 0.379
    - _GlowGrow: 0.32
    - _GlowIntensity: 2.76
    - _GlowScale: 0.28
    - _GlowStep: 0.463
    - _Metallic: 0
    - _Mode: 0
    - _OcclusionStrength: 1
    - _Parallax: 0.02
    - _SrcBlend: 1
    - _UVSec: 0
    - _ZWrite: 1
    m_Colors:
    - _AtmosphereColor: {r: 0.4, g: 0.3, b: 0.9, a: 1}
    - _Color: {r: 1, g: 1, b: 1, a: 1}
    - _EmissionColor: {r: 0, g: 0, b: 0, a: 1}
    - _GlowColor: {r: 0.353, g: 0.3529412, b: 1, a: 1}
    - _SunLightDirection: {r: -0.70710677, g: -0.70710677, b: 0, a: 0}
    - _Tint: {r: 1, g: 1, b: 1, a: 1}
  m_BuildTextureStacks: []
