%YAML 1.1
%TAG !u! tag:unity3d.com,2011:
--- !u!1045 &1
EditorBuildSettings:
  m_ObjectHideFlags: 0
  serializedVersion: 2
  m_Scenes:
  - enabled: 1
    path: Assets/Scenes/WorldScene.unity
    guid: 8b5a8667dbe641c4b95ebe9220cb2ce4
  m_configObjects:
    Unity.XR.Oculus.Settings: {fileID: 11400000, guid: 9112784a19d4244408b17f544754e444, type: 2}
    com.unity.xr.management.loader_settings: {fileID: 11400000, guid: 3e4140846e63b214fbcb16839bc45641, type: 2}
